{
  "development": {
    "username": "postgres",
    "password": "12341234",
    "database": "db_user_mgt",
    "host": "localhost",
    "dialect": "postgres"
  },
  "test": {
    "username": "root",
    "password": null,
    "database": "database_test",
    "host": "127.0.0.1",
    "dialect": "mysql"
  },
  "production": {
    "use_env_variable": "DATABASE_URL",
    "dialect": "postgres",
    "dialectOptions": {
        "ssl": {
            "require": true,
            "rejectUnauthorized": false
        }
    }
  }
}
